2 Enter The Tidyverse: Verbs | Statistics In R
…
Remember that when using the pipe, the following operations are equivalent

f(a,b,c)
a %>% f(b,c)

Functions from the tidyverse and a lot of other packages which follow the tidyverse style (or philosopy as described in the tidyverse vignette/manifesto) will generally take your data set as their first argument and will return another, updated data set. This allows you to make a really smooth chain of functions.

2.4 Tibbles

In the previous lesson, we loaded up a dataset called iris. By default, data sets are loaded as a structure called a data.frame. The tidyverse team have built on this by creating a new structure nicknamed a tibble (officially they’re called tbl_df, short for table data frame), which works mostly the same, but it prints its data much neater and is a little more consistent in how we interact with it. Here’s an example from the tidyverse

starwars

## # A tibble: 87 x 14
##    name  height  mass hair_color skin_color eye_color birth_year sex   gender
##    <chr>  <int> <dbl> <chr>      <chr>      <chr>          <dbl> <chr> <chr> 
##  1 Luke~    172    77 blond      fair       blue            19   male  mascu~
##  2 C-3PO    167    75 <NA>       gold       yellow         112   none  mascu~
##  3 R2-D2     96    32 <NA>       white, bl~ red             33   none  mascu~
##  4 Dart~    202   136 none       white      yellow          41.9 male  mascu~
##  5 Leia~    150    49 brown      light      brown           19   fema~ femin~
##  6 Owen~    178   120 brown, gr~ light      blue            52   male  mascu~
##  7 Beru~    165    75 brown      light      blue            47   fema~ femin~
##  8 R5-D4     97    32 <NA>       white, red red             NA   none  mascu~
##  9 Bigg~    183    84 black      light      brown           24   male  mascu~
## 10 Obi-~    182    77 auburn, w~ fair       blue-gray       57   male  mascu~
## # ... with 77 more rows, and 5 more variables: homeworld <chr>, species <chr>,
## #   films <list>, vehicles <list>, starships <list>
…
This is the same as using the & operator between each of these criteria, therefore, this returns all observations where all of the criteria are TRUE and we can use as many as we want. If we want to get observations where any of some criteria are true, we can use the | operator:

starwars %>%
  filter(homeworld == "Naboo" | species == "Human")

## # A tibble: 41 x 14
##    name  height  mass hair_color skin_color eye_color birth_year sex   gender
##    <chr>  <int> <dbl> <chr>      <chr>      <chr>          <dbl> <chr> <chr> 
##  1 Luke~    172    77 blond      fair       blue            19   male  mascu~
##  2 R2-D2     96    32 <NA>       white, bl~ red             33   none  mascu~
##  3 Dart~    202   136 none       white      yellow          41.9 male  mascu~
##  4 Leia~    150    49 brown      light      brown           19   fema~ femin~
##  5 Owen~    178   120 brown, gr~ light      blue            52   male  mascu~
##  6 Beru~    165    75 brown      light      blue            47   fema~ femin~
##  7 Bigg~    183    84 black      light      brown           24   male  mascu~
##  8 Obi-~    182    77 auburn, w~ fair       blue-gray       57   male  mascu~
##  9 Anak~    188    84 blond      fair       blue            41.9 male  mascu~
## 10 Wilh~    180    NA auburn, g~ fair       blue            64   male  mascu~
## # ... with 31 more rows, and 5 more variables: homeworld <chr>, species <chr>,
## #   films <list>, vehicles <list>, starships <list>

We can even use that is.na() function here to look for missing data, which can allow us to investigate holes in our data sets:

starwars %>%
  filter(is.na(birth_year))

## # A tibble: 44 x 14
##    name  height  mass hair_color skin_color eye_color birth_year sex   gender
##    <chr>  <int> <dbl> <chr>      <chr>      <chr>          <dbl> <chr> <chr> 
##  1 R5-D4     97    32 <NA>       white, red red               NA none  mascu~
##  2 Jek ~    180   110 brown      fair       blue              NA male  mascu~
##  3 Arve~     NA    NA brown      fair       brown             NA male  mascu~
##  4 Nien~    160    68 none       grey       black             NA male  mascu~
##  5 Nute~    191    90 none       mottled g~ red               NA male  mascu~
##  6 Roos~    224    82 none       grey       orange            NA male  mascu~
##  7 Rugo~    206    NA none       green      orange            NA male  mascu~
##  8 Ric ~    183    NA brown      fair       blue              NA <NA>  <NA>  
##  9 Watto    137    NA black      blue, grey yellow            NA male  mascu~
## 10 Sebu~    112    40 none       grey, red  orange            NA male  mascu~
## # ... with 34 more rows, and 5 more variables: homeworld <chr>, species <chr>,
## #   films <list>, vehicles <list>, starships <list>
…
Similar to how we subsetted vectors and data.frames previously, we can also say which rows we don’t want, so if I don’t want the first 10 rows, I can use -(1:10)

starwars %>%
  slice(-(1:10))

## # A tibble: 77 x 14
##    name  height  mass hair_color skin_color eye_color birth_year sex   gender
##    <chr>  <int> <dbl> <chr>      <chr>      <chr>          <dbl> <chr> <chr> 
##  1 Anak~    188    84 blond      fair       blue            41.9 male  mascu~
##  2 Wilh~    180    NA auburn, g~ fair       blue            64   male  mascu~
##  3 Chew~    228   112 brown      unknown    blue           200   male  mascu~
##  4 Han ~    180    80 brown      fair       brown           29   male  mascu~
##  5 Gree~    173    74 <NA>       green      black           44   male  mascu~
##  6 Jabb~    175  1358 <NA>       green-tan~ orange         600   herm~ mascu~
##  7 Wedg~    170    77 brown      fair       hazel           21   male  mascu~
##  8 Jek ~    180   110 brown      fair       blue            NA   male  mascu~
##  9 Yoda      66    17 white      green      brown          896   male  mascu~
## 10 Palp~    170    75 grey       pale       yellow          82   male  mascu~
## # ... with 67 more rows, and 5 more variables: homeworld <chr>, species <chr>,
## #   films <list>, vehicles <list>, starships <list>
…
2.5.3 arrange()

Sometimes we may wish to re-arrange our data into a neater ordering. The arrange() function does just that. It’ll sort your data by whatever variable(s) are passed to it:

starwars %>%
  arrange(name)

## # A tibble: 87 x 14
##    name  height  mass hair_color skin_color eye_color birth_year sex   gender
##    <chr>  <int> <dbl> <chr>      <chr>      <chr>          <dbl> <chr> <chr> 
##  1 Ackb~    180    83 none       brown mot~ orange          41   male  mascu~
##  2 Adi ~    184    50 none       dark       blue            NA   fema~ femin~
##  3 Anak~    188    84 blond      fair       blue            41.9 male  mascu~
##  4 Arve~     NA    NA brown      fair       brown           NA   male  mascu~
##  5 Ayla~    178    55 none       blue       hazel           48   fema~ femin~
##  6 Bail~    191    NA black      tan        brown           67   male  mascu~
##  7 Barr~    166    50 black      yellow     blue            40   fema~ femin~
##  8 BB8       NA    NA none       none       black           NA   none  mascu~
##  9 Ben ~    163    65 none       grey, gre~ orange          NA   male  mascu~
## 10 Beru~    165    75 brown      light      blue            47   fema~ femin~
## # ... with 77 more rows, and 5 more variables: homeworld <chr>, species <chr>,
## #   films <list>, vehicles <list>, starships <list>

And if we have ties, such as with mass, we can add a second sorting variable.

starwars %>%
  arrange(mass,height)

## # A tibble: 87 x 14
##    name  height  mass hair_color skin_color eye_color birth_year sex   gender
##    <chr>  <int> <dbl> <chr>      <chr>      <chr>          <dbl> <chr> <chr> 
##  1 Ratt~     79    15 none       grey, blue unknown           NA male  mascu~
##  2 Yoda      66    17 white      green      brown            896 male  mascu~
##  3 Wick~     88    20 brown      brown      brown              8 male  mascu~
##  4 R2-D2     96    32 <NA>       white, bl~ red               33 none  mascu~
##  5 R5-D4     97    32 <NA>       white, red red               NA none  mascu~
##  6 Sebu~    112    40 none       grey, red  orange            NA male  mascu~
##  7 Dud ~     94    45 none       blue, grey yellow            NA male  mascu~
##  8 Padm~    165    45 brown      light      brown             46 fema~ femin~
##  9 Sly ~    178    48 none       pale       white             NA <NA>  <NA>  
## 10 Wat ~    193    48 none       green, gr~ unknown           NA male  mascu~
## # ... with 77 more rows, and 5 more variables: homeworld <chr>, species <chr>,
## #   films <list>, vehicles <list>, starships <list>
…
By default, R will sort numeric data in ascending order and characters in alphabetical order. If we want to reverse this, we can use the desc() function:

starwars %>%
  arrange(desc(mass))

## # A tibble: 87 x 14
##    name  height  mass hair_color skin_color eye_color birth_year sex   gender
##    <chr>  <int> <dbl> <chr>      <chr>      <chr>          <dbl> <chr> <chr> 
##  1 Jabb~    175  1358 <NA>       green-tan~ orange         600   herm~ mascu~
##  2 Grie~    216   159 none       brown, wh~ green, y~       NA   male  mascu~
##  3 IG-88    200   140 none       metal      red             15   none  mascu~
##  4 Dart~    202   136 none       white      yellow          41.9 male  mascu~
##  5 Tarf~    234   136 brown      brown      blue            NA   male  mascu~
##  6 Owen~    178   120 brown, gr~ light      blue            52   male  mascu~
##  7 Bossk    190   113 none       green      red             53   male  mascu~
##  8 Chew~    228   112 brown      unknown    blue           200   male  mascu~
##  9 Jek ~    180   110 brown      fair       blue            NA   male  mascu~
## 10 Dext~    198   102 none       brown      yellow          NA   male  mascu~
## # ... with 77 more rows, and 5 more variables: homeworld <chr>, species <chr>,
## #   films <list>, vehicles <list>, starships <list>

Once again, the NA values are at the bottom.

2.5.4 select()

The previous verbs all did something related to the rows in our data, whether that was extracting some subset of rows, or to organise the rows of our data better. select() acts similar to filter() but to extract columns or variables, rather than rows (observations)

starwars %>%
  select(name,height,mass)

## # A tibble: 87 x 3
##    name               height  mass
##    <chr>               <int> <dbl>
##  1 Luke Skywalker        172    77
##  2 C-3PO                 167    75
##  3 R2-D2                  96    32
##  4 Darth Vader           202   136
##  5 Leia Organa           150    49
##  6 Owen Lars             178   120
##  7 Beru Whitesun lars    165    75
##  8 R5-D4                  97    32
##  9 Biggs Darklighter     183    84
## 10 Obi-Wan Kenobi        182    77
## # ... with 77 more rows

For this, we have selected only three variables. There are a few different ways we can use select(), depending on what we want to do.

Again, we can say what we don’t want:

starwars %>%
  select(-eye_color,-skin_color)

## # A tibble: 87 x 12
##    name  height  mass hair_color birth_year sex   gender homeworld species films
##    <chr>  <int> <dbl> <chr>           <dbl> <chr> <chr>  <chr>     <chr>   <lis>
##  1 Luke~    172    77 blond            19   male  mascu~ Tatooine  Human   <chr~
##  2 C-3PO    167    75 <NA>            112   none  mascu~ Tatooine  Droid   <chr~
##  3 R2-D2     96    32 <NA>             33   none  mascu~ Naboo     Droid   <chr~
##  4 Dart~    202   136 none             41.9 male  mascu~ Tatooine  Human   <chr~
##  5 Leia~    150    49 brown            19   fema~ femin~ Alderaan  Human   <chr~
##  6 Owen~    178   120 brown, gr~       52   male  mascu~ Tatooine  Human   <chr~
##  7 Beru~    165    75 brown            47   fema~ femin~ Tatooine  Human   <chr~
##  8 R5-D4     97    32 <NA>             NA   none  mascu~ Tatooine  Droid   <chr~
##  9 Bigg~    183    84 black            24   male  mascu~ Tatooine  Human   <chr~
## 10 Obi-~    182    77 auburn, w~       57   male  mascu~ Stewjon   Human   <chr~
## # ... with 77 more rows, and 2 more variables: vehicles <list>,
## #   starships <list>

We can use numbers, similar to slice() to get the nth columns

starwars %>%
  select(1,4,5,7:9)

## # A tibble: 87 x 6
##    name               hair_color    skin_color  birth_year sex    gender   
##    <chr>              <chr>         <chr>            <dbl> <chr>  <chr>    
##  1 Luke Skywalker     blond         fair              19   male   masculine
##  2 C-3PO              <NA>          gold             112   none   masculine
##  3 R2-D2              <NA>          white, blue       33   none   masculine
##  4 Darth Vader        none          white             41.9 male   masculine
##  5 Leia Organa        brown         light             19   female feminine 
##  6 Owen Lars          brown, grey   light             52   male   masculine
##  7 Beru Whitesun lars brown         light             47   female feminine 
##  8 R5-D4              <NA>          white, red        NA   none   masculine
##  9 Biggs Darklighter  black         light             24   male   masculine
## 10 Obi-Wan Kenobi     auburn, white fair              57   male   masculine
## # ... with 77 more rows

Personally, I don’t tend to use the numeric version, as I prefer to use the names of the variables I’m getting. Above, I used 7:9 to create a vector 7 8 9 and pull them. We can actully do this using the variable names (but this doesn’t work outside of tidyverse)

starwars %>%
  select(name:eye_color)

## # A tibble: 87 x 6
##    name               height  mass hair_color    skin_color  eye_color
##    <chr>               <int> <dbl> <chr>         <chr>       <chr>    
##  1 Luke Skywalker        172    77 blond         fair        blue     
##  2 C-3PO                 167    75 <NA>          gold        yellow   
##  3 R2-D2                  96    32 <NA>          white, blue red      
##  4 Darth Vader           202   136 none          white       yellow   
##  5 Leia Organa           150    49 brown         light       brown    
##  6 Owen Lars             178   120 brown, grey   light       blue     
##  7 Beru Whitesun lars    165    75 brown         light       blue     
##  8 R5-D4                  97    32 <NA>          white, red  red      
##  9 Biggs Darklighter     183    84 black         light       brown    
## 10 Obi-Wan Kenobi        182    77 auburn, white fair        blue-gray
## # ... with 77 more rows

One final thing we can use select() for is to rearrange our variables. The variables in select() will be in the order supplied:

starwars %>%
  select(height,mass,name)

## # A tibble: 87 x 3
##    height  mass name              
##     <int> <dbl> <chr>             
##  1    172    77 Luke Skywalker    
##  2    167    75 C-3PO             
##  3     96    32 R2-D2             
##  4    202   136 Darth Vader       
##  5    150    49 Leia Organa       
##  6    178   120 Owen Lars         
##  7    165    75 Beru Whitesun lars
##  8     97    32 R5-D4             
##  9    183    84 Biggs Darklighter 
## 10    182    77 Obi-Wan Kenobi    
## # ... with 77 more rows

But, what if we want to bring just one or two variables to the left (so we can see them easier) and not drop the rest? Well that’s where a little tidy helper called everything() comes in:

starwars %>%
  select(homeworld,species,everything())

## # A tibble: 87 x 14
##    homeworld species name  height  mass hair_color skin_color eye_color
##    <chr>     <chr>   <chr>  <int> <dbl> <chr>      <chr>      <chr>    
##  1 Tatooine  Human   Luke~    172    77 blond      fair       blue     
##  2 Tatooine  Droid   C-3PO    167    75 <NA>       gold       yellow   
##  3 Naboo     Droid   R2-D2     96    32 <NA>       white, bl~ red      
##  4 Tatooine  Human   Dart~    202   136 none       white      yellow   
##  5 Alderaan  Human   Leia~    150    49 brown      light      brown    
##  6 Tatooine  Human   Owen~    178   120 brown, gr~ light      blue     
##  7 Tatooine  Human   Beru~    165    75 brown      light      blue     
##  8 Tatooine  Droid   R5-D4     97    32 <NA>       white, red red      
##  9 Tatooine  Human   Bigg~    183    84 black      light      brown    
## 10 Stewjon   Human   Obi-~    182    77 auburn, w~ fair       blue-gray
## # ... with 77 more rows, and 6 more variables: birth_year <dbl>, sex <chr>,
## #   gender <chr>, films <list>, vehicles <list>, starships <list>
…
filter() outputs a tibble, which can then be passed to select() with ease.

2.5.5 mutate()

The mutate function is really the powerhouse of the tidyverse and behind the %>% pipe, you will probably use it a lot. It allows us to mutate or change our data as we need. This can be to change existing variables or to create new ones. First, we will convert height from cm to m by dividing by 100

starwars %>%
  mutate(height = height/100)

## # A tibble: 87 x 14
##    name  height  mass hair_color skin_color eye_color birth_year sex   gender
##    <chr>  <dbl> <dbl> <chr>      <chr>      <chr>          <dbl> <chr> <chr> 
##  1 Luke~   1.72    77 blond      fair       blue            19   male  mascu~
##  2 C-3PO   1.67    75 <NA>       gold       yellow         112   none  mascu~
##  3 R2-D2   0.96    32 <NA>       white, bl~ red             33   none  mascu~
##  4 Dart~   2.02   136 none       white      yellow          41.9 male  mascu~
##  5 Leia~   1.5     49 brown      light      brown           19   fema~ femin~
##  6 Owen~   1.78   120 brown, gr~ light      blue            52   male  mascu~
##  7 Beru~   1.65    75 brown      light      blue            47   fema~ femin~
##  8 R5-D4   0.97    32 <NA>       white, red red             NA   none  mascu~
##  9 Bigg~   1.83    84 black      light      brown           24   male  mascu~
## 10 Obi-~   1.82    77 auburn, w~ fair       blue-gray       57   male  mascu~
## # ... with 77 more rows, and 5 more variables: homeworld <chr>, species <chr>,
## #   films <list>, vehicles <list>, starships <list>

We can combine multiple mutations in a single mutate() function and R will perform them in order. This also means if we change a variable in one command, the updated version will be used from then on. It’s also worth pointing out that new variables will by default be put at the end of our data, but we can use the .before or .after arguments to squeeze them in earlier (notice that there is a dot at the start of these agrgument names, it’s .before not before)

starwars %>%
  mutate(height = height/100,
         BMI = mass/height^2,
         .after = mass)

## # A tibble: 87 x 15
##    name  height  mass   BMI hair_color skin_color eye_color birth_year sex  
##    <chr>  <dbl> <dbl> <dbl> <chr>      <chr>      <chr>          <dbl> <chr>
##  1 Luke~   1.72    77  26.0 blond      fair       blue            19   male 
##  2 C-3PO   1.67    75  26.9 <NA>       gold       yellow         112   none 
##  3 R2-D2   0.96    32  34.7 <NA>       white, bl~ red             33   none 
##  4 Dart~   2.02   136  33.3 none       white      yellow          41.9 male 
##  5 Leia~   1.5     49  21.8 brown      light      brown           19   fema~
##  6 Owen~   1.78   120  37.9 brown, gr~ light      blue            52   male 
##  7 Beru~   1.65    75  27.5 brown      light      blue            47   fema~
##  8 R5-D4   0.97    32  34.0 <NA>       white, red red             NA   none 
##  9 Bigg~   1.83    84  25.1 black      light      brown           24   male 
## 10 Obi-~   1.82    77  23.2 auburn, w~ fair       blue-gray       57   male 
## # ... with 77 more rows, and 6 more variables: gender <chr>, homeworld <chr>,
## #   species <chr>, films <list>, vehicles <list>, starships <list>
…
