3 Enter The Tidyverse: What’s Next? | Statistics In R
…
mutate() - changes variables or creates new ones

summarise() - aggregates variables based on some functions

group_by() - groups data sets by variables

3.2 Pivoting

In general, datasets come in two forms, long or wide. Long data has many rows and fewer columns, and so it looks longer (vertically) if shown in a spreadsheet. Wide data has more columns and fewer rows (hence, it is wider). Data can be represented in both ways and each has advantages.

This terminology might seem confusing for now, but we’re going to jump into an example dataset which includes how songs moved through the charts in the year 2000. We’re given the date when the song entered the chart (which is always a Saturday) and then the ranking within the charts for the next 76 weeks. This data is in wide format.

billboard

## # A tibble: 317 x 79
##    artist track date.entered   wk1   wk2   wk3   wk4   wk5   wk6   wk7   wk8
##    <chr>  <chr> <date>       <dbl> <dbl> <dbl> <dbl> <dbl> <dbl> <dbl> <dbl>
##  1 2 Pac  Baby~ 2000-02-26      87    82    72    77    87    94    99    NA
##  2 2Ge+h~ The ~ 2000-09-02      91    87    92    NA    NA    NA    NA    NA
##  3 3 Doo~ Kryp~ 2000-04-08      81    70    68    67    66    57    54    53
##  4 3 Doo~ Loser 2000-10-21      76    76    72    69    67    65    55    59
##  5 504 B~ Wobb~ 2000-04-15      57    34    25    17    17    31    36    49
##  6 98^0   Give~ 2000-08-19      51    39    34    26    26    19     2     2
##  7 A*Tee~ Danc~ 2000-07-08      97    97    96    95   100    NA    NA    NA
##  8 Aaliy~ I Do~ 2000-01-29      84    62    51    41    38    35    35    38
##  9 Aaliy~ Try ~ 2000-03-18      59    53    38    28    21    18    16    14
## 10 Adams~ Open~ 2000-08-26      76    76    74    69    68    67    61    58
## # ... with 307 more rows, and 68 more variables: wk9 <dbl>, wk10 <dbl>,
## #   wk11 <dbl>, wk12 <dbl>, wk13 <dbl>, wk14 <dbl>, wk15 <dbl>, wk16 <dbl>,
## #   wk17 <dbl>, wk18 <dbl>, wk19 <dbl>, wk20 <dbl>, wk21 <dbl>, wk22 <dbl>,
## #   wk23 <dbl>, wk24 <dbl>, wk25 <dbl>, wk26 <dbl>, wk27 <dbl>, wk28 <dbl>,
## #   wk29 <dbl>, wk30 <dbl>, wk31 <dbl>, wk32 <dbl>, wk33 <dbl>, wk34 <dbl>,
## #   wk35 <dbl>, wk36 <dbl>, wk37 <dbl>, wk38 <dbl>, wk39 <dbl>, wk40 <dbl>,
## #   wk41 <dbl>, wk42 <dbl>, wk43 <dbl>, wk44 <dbl>, wk45 <dbl>, wk46 <dbl>,
## #   wk47 <dbl>, wk48 <dbl>, wk49 <dbl>, wk50 <dbl>, wk51 <dbl>, wk52 <dbl>,
## #   wk53 <dbl>, wk54 <dbl>, wk55 <dbl>, wk56 <dbl>, wk57 <dbl>, wk58 <dbl>,
…
Each row represents one song, and therefore our observations are single songs and looking at when each song was in the charts. The position in the charts for each week from it’s date of release is represented by a separate variable.

3.2.1 pivot_longer()

But, we might want an observation to represent each week for a track and so we can turn this data from wide to long format using the pivot_longer() function. The data currently has 317 rows and 76 weeks, so the resulting dataset should have 2.4092^{4} rows, since each track will now appear across 76 rows.

billboard %>%
  pivot_longer(
    cols = starts_with("wk"),
    names_to = "week_num",
    values_to = "position"
  )

## # A tibble: 24,092 x 5
##    artist track                   date.entered week_num position
##    <chr>  <chr>                   <date>       <chr>       <dbl>
##  1 2 Pac  Baby Don't Cry (Keep... 2000-02-26   wk1            87
##  2 2 Pac  Baby Don't Cry (Keep... 2000-02-26   wk2            82
##  3 2 Pac  Baby Don't Cry (Keep... 2000-02-26   wk3            72
##  4 2 Pac  Baby Don't Cry (Keep... 2000-02-26   wk4            77
##  5 2 Pac  Baby Don't Cry (Keep... 2000-02-26   wk5            87
##  6 2 Pac  Baby Don't Cry (Keep... 2000-02-26   wk6            94
##  7 2 Pac  Baby Don't Cry (Keep... 2000-02-26   wk7            99
##  8 2 Pac  Baby Don't Cry (Keep... 2000-02-26   wk8            NA
##  9 2 Pac  Baby Don't Cry (Keep... 2000-02-26   wk9            NA
## 10 2 Pac  Baby Don't Cry (Keep... 2000-02-26   wk10           NA
## # ... with 24,082 more rows

So we used the pivot_longer() function with 4 arguments. Remember that the first argument is our dataset being piped in. Then we’ve given a name to the new variable that takes the previous variable names (names_to), similarly for the values we are extracting (values_to). The other argument is using a tidy helper called starts_with(). Remember the everything() helper from last time when we were using the select() function? This works similarly. It’s saying that the columns we want to pivot are the ones that start with "wk".

This dataset looks much bigger because it has more observations, but it’s still representing the same data. pivot_longer() has a few other tricks that we can do. For example, there are now lot of NA values in the position variable, these represent weeks when the track fell out of the top 100. We could use filter() to get rid of these, or we can tell pivot_longer() to do it for us.

billboard %>%
  pivot_longer(
    cols = starts_with("wk"),
    names_to = "week_num",
    values_to = "position",
    values_drop_na = TRUE
  )

## # A tibble: 5,307 x 5
##    artist  track                   date.entered week_num position
##    <chr>   <chr>                   <date>       <chr>       <dbl>
##  1 2 Pac   Baby Don't Cry (Keep... 2000-02-26   wk1            87
##  2 2 Pac   Baby Don't Cry (Keep... 2000-02-26   wk2            82
##  3 2 Pac   Baby Don't Cry (Keep... 2000-02-26   wk3            72
##  4 2 Pac   Baby Don't Cry (Keep... 2000-02-26   wk4            77
##  5 2 Pac   Baby Don't Cry (Keep... 2000-02-26   wk5            87
##  6 2 Pac   Baby Don't Cry (Keep... 2000-02-26   wk6            94
##  7 2 Pac   Baby Don't Cry (Keep... 2000-02-26   wk7            99
##  8 2Ge+her The Hardest Part Of ... 2000-09-02   wk1            91
##  9 2Ge+her The Hardest Part Of ... 2000-09-02   wk2            87
## 10 2Ge+her The Hardest Part Of ... 2000-09-02   wk3            92
## # ... with 5,297 more rows

We’ve not got much less rows since we’ve gotten rid of the NA values from the position variable. The values_drop_na argument does exactly what the name suggests. Should we drop the NAs or keep them? If we want to work with this dataset though, we’d prefer that week_num column to be a number, at the minute it’s character, which means we can’t do any maths on it. pivot_longer() can get rid of the "wk" part of this and convert it to a number using two more arguments:

billboard_long <- billboard %>%
  pivot_longer(
    cols = starts_with("wk"),
    names_to = "week_num",
    values_to = "position",
    values_drop_na = TRUE,
    names_prefix = "wk",
    names_transform = list(week_num = as.integer)
  )
billboard_long

## # A tibble: 5,307 x 5
##    artist  track                   date.entered week_num position
##    <chr>   <chr>                   <date>          <int>    <dbl>
##  1 2 Pac   Baby Don't Cry (Keep... 2000-02-26          1       87
##  2 2 Pac   Baby Don't Cry (Keep... 2000-02-26          2       82
##  3 2 Pac   Baby Don't Cry (Keep... 2000-02-26          3       72
##  4 2 Pac   Baby Don't Cry (Keep... 2000-02-26          4       77
##  5 2 Pac   Baby Don't Cry (Keep... 2000-02-26          5       87
##  6 2 Pac   Baby Don't Cry (Keep... 2000-02-26          6       94
##  7 2 Pac   Baby Don't Cry (Keep... 2000-02-26          7       99
##  8 2Ge+her The Hardest Part Of ... 2000-09-02          1       91
##  9 2Ge+her The Hardest Part Of ... 2000-09-02          2       87
## 10 2Ge+her The Hardest Part Of ... 2000-09-02          3       92
## # ... with 5,297 more rows
…
Bear in mind that the arguments above can be given to the function in any order, as long as they are named.

3.2.2 pivot_wider()

But what if we want to turn the data back? Or, in general, we want to convert a long dataset into a wide one? Well pivot_longer() has a twin called pivot_wider(). The arguments look very similar and so is their usage:

billboard_long %>%
  pivot_wider(
    names_from = "week_num",
    names_prefix = "wk",
    values_from = "position"
  )

## # A tibble: 317 x 68
##    artist track date.entered   wk1   wk2   wk3   wk4   wk5   wk6   wk7   wk8
##    <chr>  <chr> <date>       <dbl> <dbl> <dbl> <dbl> <dbl> <dbl> <dbl> <dbl>
##  1 2 Pac  Baby~ 2000-02-26      87    82    72    77    87    94    99    NA
##  2 2Ge+h~ The ~ 2000-09-02      91    87    92    NA    NA    NA    NA    NA
##  3 3 Doo~ Kryp~ 2000-04-08      81    70    68    67    66    57    54    53
##  4 3 Doo~ Loser 2000-10-21      76    76    72    69    67    65    55    59
##  5 504 B~ Wobb~ 2000-04-15      57    34    25    17    17    31    36    49
##  6 98^0   Give~ 2000-08-19      51    39    34    26    26    19     2     2
##  7 A*Tee~ Danc~ 2000-07-08      97    97    96    95   100    NA    NA    NA
##  8 Aaliy~ I Do~ 2000-01-29      84    62    51    41    38    35    35    38
##  9 Aaliy~ Try ~ 2000-03-18      59    53    38    28    21    18    16    14
## 10 Adams~ Open~ 2000-08-26      76    76    74    69    68    67    61    58
## # ... with 307 more rows, and 57 more variables: wk9 <dbl>, wk10 <dbl>,
## #   wk11 <dbl>, wk12 <dbl>, wk13 <dbl>, wk14 <dbl>, wk15 <dbl>, wk16 <dbl>,
## #   wk17 <dbl>, wk18 <dbl>, wk19 <dbl>, wk20 <dbl>, wk21 <dbl>, wk22 <dbl>,
## #   wk23 <dbl>, wk24 <dbl>, wk25 <dbl>, wk26 <dbl>, wk27 <dbl>, wk28 <dbl>,
## #   wk29 <dbl>, wk30 <dbl>, wk31 <dbl>, wk32 <dbl>, wk33 <dbl>, wk34 <dbl>,
## #   wk35 <dbl>, wk36 <dbl>, wk37 <dbl>, wk38 <dbl>, wk39 <dbl>, wk40 <dbl>,
## #   wk41 <dbl>, wk42 <dbl>, wk43 <dbl>, wk44 <dbl>, wk45 <dbl>, wk46 <dbl>,
## #   wk47 <dbl>, wk48 <dbl>, wk49 <dbl>, wk50 <dbl>, wk51 <dbl>, wk52 <dbl>,
## #   wk53 <dbl>, wk54 <dbl>, wk55 <dbl>, wk56 <dbl>, wk57 <dbl>, wk58 <dbl>,
…
First we’re going to load up another package called lubridate which makes working with dates a lot smoother.

## 
## Attaching package: 'lubridate'

## The following objects are masked from 'package:base':
## 
##     date, intersect, setdiff, union

And then we can figure out how far into the year each song was released (note that the date.entered is a Saturday and the year 2000 started on a Saturday). To do this, we’ll subtract the 1st January from the date.entered to get the number of days between them and then divide it by 7 to get the number of weeks. By adding the week_num - 1, we can see which week each position is from, and we can overwrite the week_num value with this new value.

billboard_long %>%
  mutate(week_num = as.integer((date.entered - dmy("01/01/2000"))/7) + week_num - 1)

## # A tibble: 5,307 x 5
##    artist  track                   date.entered week_num position
##    <chr>   <chr>                   <date>          <dbl>    <dbl>
##  1 2 Pac   Baby Don't Cry (Keep... 2000-02-26          8       87
##  2 2 Pac   Baby Don't Cry (Keep... 2000-02-26          9       82
##  3 2 Pac   Baby Don't Cry (Keep... 2000-02-26         10       72
##  4 2 Pac   Baby Don't Cry (Keep... 2000-02-26         11       77
##  5 2 Pac   Baby Don't Cry (Keep... 2000-02-26         12       87
##  6 2 Pac   Baby Don't Cry (Keep... 2000-02-26         13       94
##  7 2 Pac   Baby Don't Cry (Keep... 2000-02-26         14       99
##  8 2Ge+her The Hardest Part Of ... 2000-09-02         35       91
##  9 2Ge+her The Hardest Part Of ... 2000-09-02         36       87
## 10 2Ge+her The Hardest Part Of ... 2000-09-02         37       92
## # ... with 5,297 more rows

Next we can filter() out the weeks from outside of the year 2000 by getting rid of week_num that are less than 0 or greater than 52, and then by sorting the data by this week_num, we’ll get the columns in the right order when we come to pivot_wider() back around.

billboard_long %>%
  mutate(week_num = as.integer((date.entered - dmy("01/01/2000"))/7) + week_num - 1) %>%
  filter(between(week_num,0,52)) %>%
  arrange(week_num) %>%
  pivot_wider(
    names_from = week_num,
    names_prefix = "wk",
    values_from = position
  )

## # A tibble: 317 x 56
##    artist track date.entered   wk0   wk1   wk2   wk3   wk4   wk5   wk6   wk7
##    <chr>  <chr> <date>       <dbl> <dbl> <dbl> <dbl> <dbl> <dbl> <dbl> <dbl>
##  1 Aguil~ What~ 1999-11-27      13    11     1     1     2     2     3     3
##  2 Amber  Sexu~ 1999-07-17      69    59    58    58    49    44    42    46
##  3 Backs~ Show~ 2000-01-01      74    62    55    25    16    14    12    10
##  4 Blaque Brin~ 1999-10-23       9     9    10     5     5     6     8     9
##  5 Blige~ Deep~ 1999-11-13      64    65    67    63    67    75    85    94
##  6 Blink~ All ~ 1999-12-04      59    51    50    35    26    15     7     6
##  7 Brock~ A Co~ 2000-01-01      93    75    92    NA    NA    NA    NA    NA
##  8 Carey~ Than~ 1999-12-11      50    41    37    26    22    22     2     1
##  9 Count~ Hang~ 1999-11-06      35    32    29    29    28    32    38    48
## 10 Creed  High~ 1999-09-11      61    57    60    61    NA    NA    NA    NA
## # ... with 307 more rows, and 45 more variables: wk8 <dbl>, wk9 <dbl>,
## #   wk10 <dbl>, wk11 <dbl>, wk12 <dbl>, wk13 <dbl>, wk14 <dbl>, wk15 <dbl>,
## #   wk16 <dbl>, wk17 <dbl>, wk18 <dbl>, wk19 <dbl>, wk20 <dbl>, wk21 <dbl>,
## #   wk22 <dbl>, wk23 <dbl>, wk24 <dbl>, wk25 <dbl>, wk26 <dbl>, wk27 <dbl>,
## #   wk28 <dbl>, wk29 <dbl>, wk30 <dbl>, wk31 <dbl>, wk32 <dbl>, wk33 <dbl>,
## #   wk34 <dbl>, wk35 <dbl>, wk36 <dbl>, wk37 <dbl>, wk38 <dbl>, wk39 <dbl>,
## #   wk40 <dbl>, wk41 <dbl>, wk42 <dbl>, wk43 <dbl>, wk44 <dbl>, wk45 <dbl>,
## #   wk46 <dbl>, wk47 <dbl>, wk48 <dbl>, wk49 <dbl>, wk50 <dbl>, wk51 <dbl>,
## #   wk52 <dbl>
…
3.3.3 joins

The above two methods of combining data don’t do an awful lot. They just stick the data together without changing much. However, we might want to match our data together based on a common identifier. For this, we’re going to use some data on flights leaving New York City, which is stored in a package called nycflights

library(nycflights13)
flights2 <- select(flights,year,month,day,hour,origin,dest,tailnum,carrier)
flights2

## # A tibble: 336,776 x 8
##     year month   day  hour origin dest  tailnum carrier
##    <int> <int> <int> <dbl> <chr>  <chr> <chr>   <chr>  
##  1  2013     1     1     5 EWR    IAH   N14228  UA     
##  2  2013     1     1     5 LGA    IAH   N24211  UA     
##  3  2013     1     1     5 JFK    MIA   N619AA  AA     
##  4  2013     1     1     5 JFK    BQN   N804JB  B6     
##  5  2013     1     1     6 LGA    ATL   N668DN  DL     
##  6  2013     1     1     5 EWR    ORD   N39463  UA     
##  7  2013     1     1     6 EWR    FLL   N516JB  B6     
##  8  2013     1     1     6 LGA    IAD   N829AS  EV     
##  9  2013     1     1     6 JFK    MCO   N593JB  B6     
## 10  2013     1     1     6 LGA    ORD   N3ALAA  AA     
## # ... with 336,766 more rows
…
How would we go about sticking these together. We can’t just bind_cols() since we want to match them based on the value in carrier. To do this, we can use left_join():

flights2 %>%
  left_join(airlines,
            by="carrier")

## # A tibble: 336,776 x 9
##     year month   day  hour origin dest  tailnum carrier name                    
##    <int> <int> <int> <dbl> <chr>  <chr> <chr>   <chr>   <chr>                   
##  1  2013     1     1     5 EWR    IAH   N14228  UA      United Air Lines Inc.   
##  2  2013     1     1     5 LGA    IAH   N24211  UA      United Air Lines Inc.   
##  3  2013     1     1     5 JFK    MIA   N619AA  AA      American Airlines Inc.  
##  4  2013     1     1     5 JFK    BQN   N804JB  B6      JetBlue Airways         
##  5  2013     1     1     6 LGA    ATL   N668DN  DL      Delta Air Lines Inc.    
##  6  2013     1     1     5 EWR    ORD   N39463  UA      United Air Lines Inc.   
##  7  2013     1     1     6 EWR    FLL   N516JB  B6      JetBlue Airways         
##  8  2013     1     1     6 LGA    IAD   N829AS  EV      ExpressJet Airlines Inc.
##  9  2013     1     1     6 JFK    MCO   N593JB  B6      JetBlue Airways         
## 10  2013     1     1     6 LGA    ORD   N3ALAA  AA      American Airlines Inc.  
## # ... with 336,766 more rows

As well as supplying the two datasets, we’ve also told R which variable we want to match on. By default, R will just look at which variables appear in both datasets and match on those. And yes, you can match on multiple variables, like so.

flights2 %>%
  left_join(
    select(weather,origin,year,month,day,hour,temp)
  )

## Joining, by = c("year", "month", "day", "hour", "origin")

## # A tibble: 336,776 x 9
##     year month   day  hour origin dest  tailnum carrier  temp
##    <int> <int> <int> <dbl> <chr>  <chr> <chr>   <chr>   <dbl>
##  1  2013     1     1     5 EWR    IAH   N14228  UA       39.0
##  2  2013     1     1     5 LGA    IAH   N24211  UA       39.9
##  3  2013     1     1     5 JFK    MIA   N619AA  AA       39.0
##  4  2013     1     1     5 JFK    BQN   N804JB  B6       39.0
##  5  2013     1     1     6 LGA    ATL   N668DN  DL       39.9
##  6  2013     1     1     5 EWR    ORD   N39463  UA       39.0
##  7  2013     1     1     6 EWR    FLL   N516JB  B6       37.9
##  8  2013     1     1     6 LGA    IAD   N829AS  EV       39.9
##  9  2013     1     1     6 JFK    MCO   N593JB  B6       37.9
## 10  2013     1     1     6 LGA    ORD   N3ALAA  AA       39.9
## # ... with 336,766 more rows
…
3.4.3 case_when()

However, the recode() function isn’t too flexible, it’ll only look at a single variable and then decide what to do based on that value. We might want to check something more complicated, and so for things like that we can use the case_when() function, which has a unique syntax.

flights2 %>%
  mutate(season = case_when(
    month < 2 | month == 12 ~ "Winter",
    month < 5 ~ "Spring",
    month < 8 ~ "Summer",
    T ~ "Autumn"
  ))

## # A tibble: 336,776 x 9
##     year month   day  hour origin dest  tailnum carrier season
##    <int> <int> <int> <dbl> <chr>  <chr> <chr>   <chr>   <chr> 
##  1  2013     1     1     5 EWR    IAH   N14228  UA      Winter
##  2  2013     1     1     5 LGA    IAH   N24211  UA      Winter
##  3  2013     1     1     5 JFK    MIA   N619AA  AA      Winter
##  4  2013     1     1     5 JFK    BQN   N804JB  B6      Winter
##  5  2013     1     1     6 LGA    ATL   N668DN  DL      Winter
##  6  2013     1     1     5 EWR    ORD   N39463  UA      Winter
##  7  2013     1     1     6 EWR    FLL   N516JB  B6      Winter
##  8  2013     1     1     6 LGA    IAD   N829AS  EV      Winter
##  9  2013     1     1     6 JFK    MCO   N593JB  B6      Winter
## 10  2013     1     1     6 LGA    ORD   N3ALAA  AA      Winter
## # ... with 336,766 more rows
