2 Tidyverse for Tidy Data | Introduction to Statistics Using R
…
This read_csv() function is contained in the readr package. There is a built in function in R that allows us to bring in csv files, but it’s messier. We’re in the tidyverse now!

This has given a bit of an output. read_csv tries to guess what data types columns/variables within this dataset are. We can suppress this message with the argument col_types = col(), or we can define what we want them to be by passing the data types as a vector (d=double, c=character,l=logical) col_types=c("c","c","c","c","c").

Let’s have a look at this data. Previously, we needed to use the head() function to just look at the top few rows. But that was when we were using data.frame structure from the basic R package. read_csv() loads the data and stores it in a tibble format. This is essentially the same as a data.frame (and can be used in the same way), but provides a bit more information and consistency and only prints the first few rows:

dat

## # A tibble: 150 x 5
##    ID    DOB        Gender Ht    Wgt  
##    <chr> <chr>      <chr>  <chr> <chr>
##  1 001   22/03/1965 m      5 6   7 1  
##  2 002   17/04/1977 f      5 9   11 0 
##  3 003   24/07/1966 f      5 4   9 8  
##  4 004   22/02/1985 Female 5 7   11 1 
##  5 005   30/07/1985 M      6 0   10 10
##  6 006   09/07/1987 male   6 2   11 12
##  7 007   23/01/1995 female 5 10  10 2 
##  8 008   31/12/1992 M      6 3   12 1 
##  9 009   24/01/1952 Male   5 4   7 10 
## 10 010   11/06/1953 F      5 2   8 6  
## # ... with 140 more rows
…
Height and weight are stored as feet/inches and stone/pounds. This is inconvenient. We want consistecy, so we want to change them to cm and kg.

Gender is also inconsitent some are words (male/female) and lower/uppercase single letters. We need to standardise this.

2.4 Changing our data

We could edit this data in excel and go through one cell at a time, but if we have a big data set, this is going to be difficult. Let’s get R to do it for us. The advantage of doing it all in R is that our Raw data (the original file) doesn’t need to be changed. We write our code in a Script to process the data and then at the end, we can save our data as a new file, or just our outputs (i.e. our models).

2.4.1 The mutate() function

The dplyr package provides us with the mutate() function, which is incredibly useful for editing data as we go, and is designed to be used with the pipe. Let’s use it, along with the as.numeric() function to convert the ID variable into a number.

dat %>% mutate(ID = as.numeric(ID))

## # A tibble: 150 x 5
##       ID DOB        Gender Ht    Wgt  
##    <dbl> <chr>      <chr>  <chr> <chr>
##  1     1 22/03/1965 m      5 6   7 1  
##  2     2 17/04/1977 f      5 9   11 0 
##  3     3 24/07/1966 f      5 4   9 8  
##  4     4 22/02/1985 Female 5 7   11 1 
##  5     5 30/07/1985 M      6 0   10 10
##  6     6 09/07/1987 male   6 2   11 12
##  7     7 23/01/1995 female 5 10  10 2 
##  8     8 31/12/1992 M      6 3   12 1 
##  9     9 24/01/1952 Male   5 4   7 10 
## 10    10 11/06/1953 F      5 2   8 6  
## # ... with 140 more rows

Exactly as we needed, ID is now a number (<dbl>, short for double, which just means it can store a big number, a relic of old programming). The mutate() function takes in a tibble as it’s first argument (remember, this is what the pipe is doing) and changes it depending on whatever other information is passed to it. If the variable we put in already exists, it is overwritten, if not a new column is created. We can edit more than one variable at a time this way and create new variables and the variables are created/edited in order.

dat %>%
  mutate(x = runif(150), #Remember this function?
         y = runif(150),
         x = x + y)

## # A tibble: 150 x 7
##    ID    DOB        Gender Ht    Wgt       x     y
##    <chr> <chr>      <chr>  <chr> <chr> <dbl> <dbl>
##  1 001   22/03/1965 m      5 6   7 1   1.08  0.371
##  2 002   17/04/1977 f      5 9   11 0  0.869 0.421
##  3 003   24/07/1966 f      5 4   9 8   1.71  0.959
##  4 004   22/02/1985 Female 5 7   11 1  0.930 0.761
##  5 005   30/07/1985 M      6 0   10 10 1.25  0.419
##  6 006   09/07/1987 male   6 2   11 12 1.04  0.302
##  7 007   23/01/1995 female 5 10  10 2  0.957 0.502
##  8 008   31/12/1992 M      6 3   12 1  1.03  0.244
##  9 009   24/01/1952 Male   5 4   7 10  0.858 0.521
## 10 010   11/06/1953 F      5 2   8 6   0.798 0.512
## # ... with 140 more rows

Note that this is the same as running mutate(dat,x=runif(150),y=runif(150),x=x+y).

Right now, we’ve not stored the output from the previous mutate() call, dat is still as it was when we loaded it with the ID variable stored as a character. See:

dat

## # A tibble: 150 x 5
##    ID    DOB        Gender Ht    Wgt  
##    <chr> <chr>      <chr>  <chr> <chr>
##  1 001   22/03/1965 m      5 6   7 1  
##  2 002   17/04/1977 f      5 9   11 0 
##  3 003   24/07/1966 f      5 4   9 8  
##  4 004   22/02/1985 Female 5 7   11 1 
##  5 005   30/07/1985 M      6 0   10 10
##  6 006   09/07/1987 male   6 2   11 12
##  7 007   23/01/1995 female 5 10  10 2 
##  8 008   31/12/1992 M      6 3   12 1 
##  9 009   24/01/1952 Male   5 4   7 10 
## 10 010   11/06/1953 F      5 2   8 6  
## # ... with 140 more rows
…
2.4.3 The rename() function

The dplyr package also provides us with the rename function, which allows us to rename some of the variables. This can make it easier to interpret what the variables are. Coming up with clear and concise names is very good practice for budding coders.

As we mentioned earlier, with the %>% pipe, we can chain commands together, so that’s what we’re going to start doing. In the end, our tidying of the data is going to be one long chain of functions, but it should be clear what we’ve done, and in what order. After it’s done, R will store the output of everything into the dat_clean variable.

So, let’s add a rename() command to our dat cleaning chain.

dat_clean <- dat %>% 
  mutate(ID = as.numeric(ID)) %>% #Turn ID into numeric
  rename(Height = Ht, Weight = Wgt) #Rename some variables

dat_clean

## # A tibble: 150 x 5
##       ID DOB        Gender Height Weight
##    <dbl> <chr>      <chr>  <chr>  <chr> 
##  1     1 22/03/1965 m      5 6    7 1   
##  2     2 17/04/1977 f      5 9    11 0  
##  3     3 24/07/1966 f      5 4    9 8   
##  4     4 22/02/1985 Female 5 7    11 1  
##  5     5 30/07/1985 M      6 0    10 10 
##  6     6 09/07/1987 male   6 2    11 12 
##  7     7 23/01/1995 female 5 10   10 2  
##  8     8 31/12/1992 M      6 3    12 1  
##  9     9 24/01/1952 Male   5 4    7 10  
## 10    10 11/06/1953 F      5 2    8 6   
## # ... with 140 more rows
…
We’re used the $ operator to access the Gender variable inside the dat tibble, and then ran the table() function to get a count of how often each of the values appear in the variable. An interesting side note is that when we’ve been using the variables in dat within our tidyverse functions, we’ve not needed to use this $ operator, e.g. you would expect to have to do something like dat %>% mutate(dat$ID = as.numeric(dat$ID), but we didn’t, we just needed: dat %>% mutate(ID = as.numeric(ID)). Another advantage of the tidyverse.

We as humans can tell what each of these entries means. Some of them mean Male and some mean Female. But R can’t discern that. We’re gonna lump them together by converting all the relevant values into “Male” or “Female”. We can do this using the recode() function inside the mutate() function.

dat_clean <- dat %>% 
  mutate(ID = as.numeric(ID)) %>% #Turn ID into numeric
  rename(Height = Ht, Weight = Wgt) %>% #Rename some variables
  mutate(Gender = recode(Gender, #Tidy up Gender
                         m = "Male", male = "Male", M = "Male", #Males
                         f = "Female", female = "Female", F = "Female")) #Females

dat_clean

## # A tibble: 150 x 5
##       ID DOB        Gender Height Weight
##    <dbl> <chr>      <chr>  <chr>  <chr> 
##  1     1 22/03/1965 Male   5 6    7 1   
##  2     2 17/04/1977 Female 5 9    11 0  
##  3     3 24/07/1966 Female 5 4    9 8   
##  4     4 22/02/1985 Female 5 7    11 1  
##  5     5 30/07/1985 Male   6 0    10 10 
##  6     6 09/07/1987 Male   6 2    11 12 
##  7     7 23/01/1995 Female 5 10   10 2  
##  8     8 31/12/1992 Male   6 3    12 1  
##  9     9 24/01/1952 Male   5 4    7 10  
## 10    10 11/06/1953 Female 5 2    8 6   
## # ... with 140 more rows
…
## [1] FALSE  TRUE FALSE  TRUE FALSE  TRUE

For every element in x, we check whether it is in the vector on the right. If it is, it returns TRUE, otherwise, it returns FALSE. We can use this instead of the previous recode

dat_clean <- dat %>% 
  mutate(ID = as.numeric(ID)) %>% #Turn ID into numeric
  rename(Height = Ht, Weight = Wgt) %>% #Rename some variables
  mutate(Gender = if_else(Gender %in% c("m","M","male"),"Male",Gender), #Tidy up Gender
         Gender = if_else(Gender %in% c("f","F","female"),"Female",Gender)) 

dat_clean

## # A tibble: 150 x 5
##       ID DOB        Gender Height Weight
##    <dbl> <chr>      <chr>  <chr>  <chr> 
##  1     1 22/03/1965 Male   5 6    7 1   
##  2     2 17/04/1977 Female 5 9    11 0  
##  3     3 24/07/1966 Female 5 4    9 8   
##  4     4 22/02/1985 Female 5 7    11 1  
##  5     5 30/07/1985 Male   6 0    10 10 
##  6     6 09/07/1987 Male   6 2    11 12 
##  7     7 23/01/1995 Female 5 10   10 2  
##  8     8 31/12/1992 Male   6 3    12 1  
##  9     9 24/01/1952 Male   5 4    7 10  
## 10    10 11/06/1953 Female 5 2    8 6   
## # ... with 140 more rows
…
2.4.6 The case_when() function

We’ve converted the recode() function into a pair of if_else() functions. Not too bad when we’re just doing two, but if we needed to look at more cases, this could get complicated. And complicated means prone to errors. We can use the case_when() function for this:

dat_clean <- dat %>% 
  mutate(ID = as.numeric(ID)) %>% #Turn ID into numeric
  rename(Height = Ht, Weight = Wgt) %>% #Rename some variables
  mutate(Gender = case_when(Gender %in% c("m","M","male") ~ "Male",    #Tidy up Gender
                            Gender %in% c("f","F","female") ~ "Female",
                            T ~ Gender))

dat_clean

## # A tibble: 150 x 5
##       ID DOB        Gender Height Weight
##    <dbl> <chr>      <chr>  <chr>  <chr> 
##  1     1 22/03/1965 Male   5 6    7 1   
##  2     2 17/04/1977 Female 5 9    11 0  
##  3     3 24/07/1966 Female 5 4    9 8   
##  4     4 22/02/1985 Female 5 7    11 1  
##  5     5 30/07/1985 Male   6 0    10 10 
##  6     6 09/07/1987 Male   6 2    11 12 
##  7     7 23/01/1995 Female 5 10   10 2  
##  8     8 31/12/1992 Male   6 3    12 1  
##  9     9 24/01/1952 Male   5 4    7 10  
## 10    10 11/06/1953 Female 5 2    8 6   
## # ... with 140 more rows
…
In data terms, we’d say that the Gender variable is categorical. Since we have a categorical data, it would make sense that we also want to store it in our tibble as such. Let’s do that!

Underneath, R stores a factor as a number with an associated vector of levels, which is (usually) a character.

dat_clean <- dat %>% 
  mutate(ID = as.numeric(ID)) %>% #Turn ID into numeric
  rename(Height = Ht, Weight = Wgt) %>% #Rename some variables
  mutate(Gender = case_when(Gender %in% c("m","M","male") ~ "Male",
                            Gender %in% c("f","F","female") ~ "Female",
                            T ~ Gender), #Tidy up Gender
         Gender = factor(Gender))

dat_clean

## # A tibble: 150 x 5
##       ID DOB        Gender Height Weight
##    <dbl> <chr>      <fct>  <chr>  <chr> 
##  1     1 22/03/1965 Male   5 6    7 1   
##  2     2 17/04/1977 Female 5 9    11 0  
##  3     3 24/07/1966 Female 5 4    9 8   
##  4     4 22/02/1985 Female 5 7    11 1  
##  5     5 30/07/1985 Male   6 0    10 10 
##  6     6 09/07/1987 Male   6 2    11 12 
##  7     7 23/01/1995 Female 5 10   10 2  
##  8     8 31/12/1992 Male   6 3    12 1  
##  9     9 24/01/1952 Male   5 4    7 10  
## 10    10 11/06/1953 Female 5 2    8 6   
## # ... with 140 more rows
…
2.4.9 The separate() function

The Height & Weight variables are still in an unusual form. From inspection, we can see that they’re written in imperial measures: feet & inches and stone & lbs. For Height, the feet & inches are separated by a space, so we can use this to split the vector into two

dat_clean <- dat %>% 
  mutate(ID = as.numeric(ID)) %>% #Turn ID into numeric
  rename(Height = Ht, Weight = Wgt) %>% #Rename some variables
  mutate(Gender = case_when(Gender %in% c("m","M","male") ~ "Male",
                            Gender %in% c("f","F","female") ~ "Female",
                            T ~ Gender)) %>%
  separate(Height,c("Feet","Inches"),sep=" ") #Split Height up

dat_clean

## # A tibble: 150 x 6
##       ID DOB        Gender Feet  Inches Weight
##    <dbl> <chr>      <chr>  <chr> <chr>  <chr> 
##  1     1 22/03/1965 Male   5     6      7 1   
##  2     2 17/04/1977 Female 5     9      11 0  
##  3     3 24/07/1966 Female 5     4      9 8   
##  4     4 22/02/1985 Female 5     7      11 1  
##  5     5 30/07/1985 Male   6     0      10 10 
##  6     6 09/07/1987 Male   6     2      11 12 
##  7     7 23/01/1995 Female 5     10     10 2  
##  8     8 31/12/1992 Male   6     3      12 1  
##  9     9 24/01/1952 Male   5     4      7 10  
## 10    10 11/06/1953 Female 5     2      8 6   
## # ... with 140 more rows
…
We can use the mutate_at() function to apply a function to a bunch of variables all at once. This is pretty advanced tidyverse stuff!

dat_clean <- dat %>% 
  mutate(ID = as.numeric(ID)) %>% #Turn ID into numeric
  rename(Height = Ht, Weight = Wgt) %>% #Rename some variables
  mutate(Gender = case_when(Gender %in% c("m","M","male") ~ "Male",
                            Gender %in% c("f","F","female") ~ "Female",
                            T ~ Gender)) %>%
  separate(Height,c("Feet","Inches"),sep=" ") %>% #Split Height up
  mutate_at(c("Feet","Inches"),as.numeric) #Convert to Numbers

dat_clean

## # A tibble: 150 x 6
##       ID DOB        Gender  Feet Inches Weight
##    <dbl> <chr>      <chr>  <dbl>  <dbl> <chr> 
##  1     1 22/03/1965 Male       5      6 7 1   
##  2     2 17/04/1977 Female     5      9 11 0  
##  3     3 24/07/1966 Female     5      4 9 8   
##  4     4 22/02/1985 Female     5      7 11 1  
##  5     5 30/07/1985 Male       6      0 10 10 
##  6     6 09/07/1987 Male       6      2 11 12 
##  7     7 23/01/1995 Female     5     10 10 2  
##  8     8 31/12/1992 Male       6      3 12 1  
##  9     9 24/01/1952 Male       5      4 7 10  
## 10    10 11/06/1953 Female     5      2 8 6   
## # ... with 140 more rows
…
We can now go back to the formula for converting feet/inches to metres and re-run it with Feet and Inches as numbers

dat_clean <- dat %>% 
  mutate(ID = as.numeric(ID)) %>% #Turn ID into numeric
  rename(Height = Ht, Weight = Wgt) %>% #Rename some variables
  mutate(Gender = case_when(Gender %in% c("m","M","male") ~ "Male",
                            Gender %in% c("f","F","female") ~ "Female",
                            T ~ Gender)) %>%
  separate(Height,c("Feet","Inches"),sep=" ") %>% #Split Height up
  mutate_at(c("Feet","Inches"),as.numeric) %>% #Convert to Numbers
  mutate(Height = 0.3048*Feet + 0.0254*Inches) #Convert into metres

dat_clean

## # A tibble: 150 x 7
##       ID DOB        Gender  Feet Inches Weight Height
##    <dbl> <chr>      <chr>  <dbl>  <dbl> <chr>   <dbl>
##  1     1 22/03/1965 Male       5      6 7 1      1.68
##  2     2 17/04/1977 Female     5      9 11 0     1.75
##  3     3 24/07/1966 Female     5      4 9 8      1.63
##  4     4 22/02/1985 Female     5      7 11 1     1.70
##  5     5 30/07/1985 Male       6      0 10 10    1.83
##  6     6 09/07/1987 Male       6      2 11 12    1.88
##  7     7 23/01/1995 Female     5     10 10 2     1.78
##  8     8 31/12/1992 Male       6      3 12 1     1.91
##  9     9 24/01/1952 Male       5      4 7 10     1.63
## 10    10 11/06/1953 Female     5      2 8 6      1.57
## # ... with 140 more rows
…
dat_clean <- dat %>% 
  mutate(ID = as.numeric(ID)) %>% #Turn ID into numeric
  rename(Height = Ht, Weight = Wgt) %>% #Rename some variables
  mutate(Gender = case_when(Gender %in% c("m","M","male") ~ "Male",
                            Gender %in% c("f","F","female") ~ "Female",
                            T ~ Gender)) %>%
  separate(Height,c("Feet","Inches"),sep=" ") %>% #Split Height up
  mutate_at(c("Feet","Inches"),as.numeric) %>% #Convert to Numbers
  mutate(Height = 0.3048*Feet + 0.0254*Inches) %>% #Convert into metres
  select(ID,DOB,Gender,Height,Weight) #Pick just what we want to keep

dat_clean

## # A tibble: 150 x 5
##       ID DOB        Gender Height Weight
##    <dbl> <chr>      <chr>   <dbl> <chr> 
##  1     1 22/03/1965 Male     1.68 7 1   
##  2     2 17/04/1977 Female   1.75 11 0  
##  3     3 24/07/1966 Female   1.63 9 8   
##  4     4 22/02/1985 Female   1.70 11 1  
##  5     5 30/07/1985 Male     1.83 10 10 
##  6     6 09/07/1987 Male     1.88 11 12 
##  7     7 23/01/1995 Female   1.78 10 2  
##  8     8 31/12/1992 Male     1.91 12 1  
##  9     9 24/01/1952 Male     1.63 7 10  
## 10    10 11/06/1953 Female   1.57 8 6   
## # ... with 140 more rows
…
dat_clean <- dat %>% 
  mutate(ID = as.numeric(ID)) %>% #Turn ID into numeric
  rename(Height = Ht, Weight = Wgt) %>% #Rename some variables
  mutate(Gender = case_when(Gender %in% c("m","M","male") ~ "Male",
                            Gender %in% c("f","F","female") ~ "Female",
                            T ~ Gender)) %>%
  separate(Height,c("Feet","Inches"),sep=" ") %>% #Split Height up
  mutate_at(c("Feet","Inches"),as.numeric) %>% #Convert to Numbers
  mutate(Height = 0.3048*Feet + 0.0254*Inches) %>% #Convert into metres
  select(-Feet,-Inches) #Drop what we don't want

dat_clean

## # A tibble: 150 x 5
##       ID DOB        Gender Weight Height
##    <dbl> <chr>      <chr>  <chr>   <dbl>
##  1     1 22/03/1965 Male   7 1      1.68
##  2     2 17/04/1977 Female 11 0     1.75
##  3     3 24/07/1966 Female 9 8      1.63
##  4     4 22/02/1985 Female 11 1     1.70
##  5     5 30/07/1985 Male   10 10    1.83
##  6     6 09/07/1987 Male   11 12    1.88
##  7     7 23/01/1995 Female 10 2     1.78
##  8     8 31/12/1992 Male   12 1     1.91
##  9     9 24/01/1952 Male   7 10     1.63
## 10    10 11/06/1953 Female 8 6      1.57
## # ... with 140 more rows
…
dat_clean

## # A tibble: 150 x 6
##       ID DOB        Gender Height Weight   BMI
##    <dbl> <chr>      <chr>   <dbl>  <dbl> <dbl>
##  1     1 22/03/1965 Male     1.68   44.9  16.0
##  2     2 17/04/1977 Female   1.75   69.9  22.7
##  3     3 24/07/1966 Female   1.63   60.8  23.0
##  4     4 22/02/1985 Female   1.70   70.3  24.3
##  5     5 30/07/1985 Male     1.83   68.0  20.3
##  6     6 09/07/1987 Male     1.88   75.3  21.3
##  7     7 23/01/1995 Female   1.78   64.4  20.4
##  8     8 31/12/1992 Male     1.91   76.7  21.1
##  9     9 24/01/1952 Male     1.63   49.0  18.5
## 10    10 11/06/1953 Female   1.57   53.5  21.6
## # ... with 140 more rows
…
dat_clean

## # A tibble: 150 x 6
##       ID DOB        Gender Height Weight   BMI
##    <dbl> <date>     <chr>   <dbl>  <dbl> <dbl>
##  1     1 1965-03-22 Male     1.68   44.9  16.0
##  2     2 1977-04-17 Female   1.75   69.9  22.7
##  3     3 1966-07-24 Female   1.63   60.8  23.0
##  4     4 1985-02-22 Female   1.70   70.3  24.3
##  5     5 1985-07-30 Male     1.83   68.0  20.3
##  6     6 1987-07-09 Male     1.88   75.3  21.3
##  7     7 1995-01-23 Female   1.78   64.4  20.4
##  8     8 1992-12-31 Male     1.91   76.7  21.1
##  9     9 1952-01-24 Male     1.63   49.0  18.5
## 10    10 1953-06-11 Female   1.57   53.5  21.6
## # ... with 140 more rows
…
